vcd_to_DynamicPower/vcd_files/pif2wb_dump.vcd
$date
	Sat Sep 09 15:37:58 2017
$end
$version
	ModelSim Version 10.4a
$end
$timescale
	1ns
$end

$scope module test_bridge $end
$var wire 1 ! SCLK $end
$var wire 1 " CLKETH $end
$var wire 1 # SReset $end
$var wire 1 $ PIReqVALID $end
$var wire 1 % PIReqCNTL [7] $end
$var wire 1 & PIReqCNTL [6] $end
$var wire 1 ' PIReqCNTL [5] $end
$var wire 1 ( PIReqCNTL [4] $end
$var wire 1 ) PIReqCNTL [3] $end
$var wire 1 * PIReqCNTL [2] $end
$var wire 1 + PIReqCNTL [1] $end
$var wire 1 , PIReqCNTL [0] $end
$var wire 1 - PIReqADRS [31] $end
$var wire 1 . PIReqADRS [30] $end
$var wire 1 / PIReqADRS [29] $end
$var wire 1 0 PIReqADRS [28] $end
$var wire 1 1 PIReqADRS [27] $end
$var wire 1 2 PIReqADRS [26] $end
$var wire 1 3 PIReqADRS [25] $end
$var wire 1 4 PIReqADRS [24] $end
$var wire 1 5 PIReqADRS [23] $end
$var wire 1 6 PIReqADRS [22] $end
$var wire 1 7 PIReqADRS [21] $end
$var wire 1 8 PIReqADRS [20] $end
$var wire 1 9 PIReqADRS [19] $end
$var wire 1 : PIReqADRS [18] $end
$var wire 1 ; PIReqADRS [17] $end
$var wire 1 < PIReqADRS [16] $end
$var wire 1 = PIReqADRS [15] $end
$var wire 1 > PIReqADRS [14] $end
$var wire 1 ? PIReqADRS [13] $end
$var wire 1 @ PIReqADRS [12] $end
$var wire 1 A PIReqADRS [11] $end
$var wire 1 B PIReqADRS [10] $end
$var wire 1 C PIReqADRS [9] $end
$var wire 1 D PIReqADRS [8] $end
$var wire 1 E PIReqADRS [7] $end
$var wire 1 F PIReqADRS [6] $end
$var wire 1 G PIReqADRS [5] $end
$var wire 1 H PIReqADRS [4] $end
$var wire 1 I PIReqADRS [3] $end
$var wire 1 J PIReqADRS [2] $end
$var wire 1 K PIReqADRS [1] $end
$var wire 1 L PIReqADRS [0] $end
$var wire 1 M PIReqDATA [31] $end
$var wire 1 N PIReqDATA [30] $end
$var wire 1 O PIReqDATA [29] $end
$var wire 1 P PIReqDATA [28] $end
$var wire 1 Q PIReqDATA [27] $end
$var wire 1 R PIReqDATA [26] $end
$var wire 1 S PIReqDATA [25] $end
$var wire 1 T PIReqDATA [24] $end
$var wire 1 U PIReqDATA [23] $end
$var wire 1 V PIReqDATA [22] $end
$var wire 1 W PIReqDATA [21] $end
$var wire 1 X PIReqDATA [20] $end
$var wire 1 Y PIReqDATA [19] $end
$var wire 1 Z PIReqDATA [18] $end
$var wire 1 [ PIReqDATA [17] $end
$var wire 1 \ PIReqDATA [16] $end
$var wire 1 ] PIReqDATA [15] $end
$var wire 1 ^ PIReqDATA [14] $end
$var wire 1 _ PIReqDATA [13] $end
$var wire 1 ` PIReqDATA [12] $end
$var wire 1 a PIReqDATA [11] $end
$var wire 1 b PIReqDATA [10] $end
$var wire 1 c PIReqDATA [9] $end
$var wire 1 d PIReqDATA [8] $end
$var wire 1 e PIReqDATA [7] $end
$var wire 1 f PIReqDATA [6] $end
$var wire 1 g PIReqDATA [5] $end
$var wire 1 h PIReqDATA [4] $end
$var wire 1 i PIReqDATA [3] $end
$var wire 1 j PIReqDATA [2] $end
$var wire 1 k PIReqDATA [1] $end
$var wire 1 l PIReqDATA [0] $end
$var wire 1 m PIReqDataBE [3] $end
$var wire 1 n PIReqDataBE [2] $end
$var wire 1 o PIReqDataBE [1] $end
$var wire 1 p PIReqDataBE [0] $end
$var wire 1 q PIRespRDY $end
$var wire 1 r probe_mtxd_pad_o [3] $end
$var wire 1 s probe_mtxd_pad_o [2] $end
$var wire 1 t probe_mtxd_pad_o [1] $end
$var wire 1 u probe_mtxd_pad_o [0] $end
$var wire 1 v probe_mtxen_pad_o $end
$var wire 1 w mtxerr_pad_o $end
$var wire 1 x probe_mrxd_pad_i [3] $end
$var wire 1 y probe_mrxd_pad_i [2] $end
$var wire 1 z probe_mrxd_pad_i [1] $end
$var wire 1 { probe_mrxd_pad_i [0] $end
$var wire 1 | probe_mrxdv_pad_i $end
$var wire 1 } probe_mrxerr_pad_i $end
$var wire 1 ~ probe_mcoll_pad_i $end
$var wire 1 !! probe_mcrs_pad_i $end
$var wire 1 "! probe_mdc_pad_o $end
$var wire 1 #! probe_md_pad_i $end
$var wire 1 $! probe_md_pad_o $end
$var wire 1 %! probe_md_padoe_o $end
$var wire 1 &! interrupt $end

$scope module UUT $end
$var wire 1 ! SCLK $end
$var wire 1 " CLKETH $end
$var wire 1 # SReset $end
$var wire 1 $ PIReqVALID $end
$var wire 1 % PIReqCNTL [7] $end
$var wire 1 & PIReqCNTL [6] $end
$var wire 1 ' PIReqCNTL [5] $end
$var wire 1 ( PIReqCNTL [4] $end
$var wire 1 ) PIReqCNTL [3] $end
$var wire 1 * PIReqCNTL [2] $end
$var wire 1 + PIReqCNTL [1] $end
$var wire 1 , PIReqCNTL [0] $end
$var wire 1 - PIReqADRS [31] $end
$var wire 1 . PIReqADRS [30] $end
$var wire 1 / PIReqADRS [29] $end
$var wire 1 0 PIReqADRS [28] $end
$var wire 1 1 PIReqADRS [27] $end
$var wire 1 2 PIReqADRS [26] $end
$var wire 1 3 PIReqADRS [25] $end
$var wire 1 4 PIReqADRS [24] $end
$var wire 1 5 PIReqADRS [23] $end
$var wire 1 6 PIReqADRS [22] $end
$var wire 1 7 PIReqADRS [21] $end
$var wire 1 8 PIReqADRS [20] $end
$var wire 1 9 PIReqADRS [19] $end
$var wire 1 : PIReqADRS [18] $end
$var wire 1 ; PIReqADRS [17] $end
$var wire 1 < PIReqADRS [16] $end
$var wire 1 = PIReqADRS [15] $end
$var wire 1 > PIReqADRS [14] $end
$var wire 1 ? PIReqADRS [13] $end
$var wire 1 @ PIReqADRS [12] $end
$var wire 1 A PIReqADRS [11] $end
$var wire 1 B PIReqADRS [10] $end
$var wire 1 C PIReqADRS [9] $end
$var wire 1 D PIReqADRS [8] $end
$var wire 1 E PIReqADRS [7] $end
$var wire 1 F PIReqADRS [6] $end
$var wire 1 G PIReqADRS [5] $end
$var wire 1 H PIReqADRS [4] $end
$var wire 1 I PIReqADRS [3] $end
$var wire 1 J PIReqADRS [2] $end
$var wire 1 K PIReqADRS [1] $end
$var wire 1 L PIReqADRS [0] $end
$var wire 1 M PIReqDATA [31] $end
$var wire 1 N PIReqDATA [30] $end
$var wire 1 O PIReqDATA [29] $end
$var wire 1 P PIReqDATA [28] $end
$var wire 1 Q PIReqDATA [27] $end
$var wire 1 R PIReqDATA [26] $end
$var wire 1 S PIReqDATA [25] $end
$var wire 1 T PIReqDATA [24] $end
$var wire 1 U PIReqDATA [23] $end
$var wire 1 V PIReqDATA [22] $end
$var wire 1 W PIReqDATA [21] $end
$var wire 1 X PIReqDATA [20] $end
$var wire 1 Y PIReqDATA [19] $end
$var wire 1 Z PIReqDATA [18] $end
$var wire 1 [ PIReqDATA [17] $end
$var wire 1 \ PIReqDATA [16] $end
$var wire 1 ] PIReqDATA [15] $end
$var wire 1 ^ PIReqDATA [14] $end
$var wire 1 _ PIReqDATA [13] $end
$var wire 1 ` PIReqDATA [12] $end
$var wire 1 a PIReqDATA [11] $end
$var wire 1 b PIReqDATA [10] $end
$var wire 1 c PIReqDATA [9] $end
$var wire 1 d PIReqDATA [8] $end
$var wire 1 e PIReqDATA [7] $end
$var wire 1 f PIReqDATA [6] $end
$var wire 1 g PIReqDATA [5] $end
$var wire 1 h PIReqDATA [4] $end
$var wire 1 i PIReqDATA [3] $end
$var wire 1 j PIReqDATA [2] $end
$var wire 1 k PIReqDATA [1] $end
$var wire 1 l PIReqDATA [0] $end
$var wire 1 m PIReqDataBE [3] $end
$var wire 1 n PIReqDataBE [2] $end
$var wire 1 o PIReqDataBE [1] $end
$var wire 1 p PIReqDataBE [0] $end
$var wire 1 q PIRespRDY $end
$var wire 1 r probe_mtxd_pad_o [3] $end
$var wire 1 s probe_mtxd_pad_o [2] $end
$var wire 1 t probe_mtxd_pad_o [1] $end
$var wire 1 u probe_mtxd_pad_o [0] $end
$var wire 1 v probe_mtxen_pad_o $end
$var wire 1 w mtxerr_pad_o $end
$var wire 1 x probe_mrxd_pad_i [3] $end
$var wire 1 y probe_mrxd_pad_i [2] $end
$var wire 1 z probe_mrxd_pad_i [1] $end
$var wire 1 { probe_mrxd_pad_i [0] $end
$var wire 1 | probe_mrxdv_pad_i $end
$var wire 1 } probe_mrxerr_pad_i $end
$var wire 1 ~ probe_mcoll_pad_i $end
$var wire 1 !! probe_mcrs_pad_i $end
$var wire 1 "! probe_mdc_pad_o $end
$var wire 1 #! probe_md_pad_i $end
$var wire 1 $! probe_md_pad_o $end
$var wire 1 %! probe_md_padoe_o $end
$var wire 1 &! interrupt $end
$var wire 1 '! PIRespValid_t $end
$var wire 1 (! PIRespCntl_t [7] $end
$var wire 1 )! PIRespCntl_t [6] $end
$var wire 1 *! PIRespCntl_t [5] $end
$var wire 1 +! PIRespCntl_t [4] $end
$var wire 1 ,! PIRespCntl_t [3] $end
$var wire 1 -! PIRespCntl_t [2] $end
$var wire 1 .! PIRespCntl_t [1] $end
$var wire 1 /! PIRespCntl_t [0] $end
$var wire 1 0! PIRespData_t [31] $end
$var wire 1 1! PIRespData_t [30] $end
$var wire 1 2! PIRespData_t [29] $end
$var wire 1 3! PIRespData_t [28] $end
$var wire 1 4! PIRespData_t [27] $end
$var wire 1 5! PIRespData_t [26] $end
$var wire 1 6! PIRespData_t [25] $end
$var wire 1 7! PIRespData_t [24] $end
$var wire 1 8! PIRespData_t [23] $end
$var wire 1 9! PIRespData_t [22] $end
$var wire 1 :! PIRespData_t [21] $end
$var wire 1 ;! PIRespData_t [20] $end
$var wire 1 <! PIRespData_t [19] $end
$var wire 1 =! PIRespData_t [18] $end
$var wire 1 >! PIRespData_t [17] $end
$var wire 1 ?! PIRespData_t [16] $end
$var wire 1 @! PIRespData_t [15] $end
$var wire 1 A! PIRespData_t [14] $end
$var wire 1 B! PIRespData_t [13] $end
$var wire 1 C! PIRespData_t [12] $end
$var wire 1 D! PIRespData_t [11] $end
$var wire 1 E! PIRespData_t [10] $end
$var wire 1 F! PIRespData_t [9] $end
$var wire 1 G! PIRespData_t [8] $end
$var wire 1 H! PIRespData_t [7] $end
$var wire 1 I! PIRespData_t [6] $end
$var wire 1 J! PIRespData_t [5] $end
$var wire 1 K! PIRespData_t [4] $end
$var wire 1 L! PIRespData_t [3] $end
$var wire 1 M! PIRespData_t [2] $end
$var wire 1 N! PIRespData_t [1] $end
$var wire 1 O! PIRespData_t [0] $end
$var wire 1 P! PIRespPriority_t [1] $end
$var wire 1 Q! PIRespPriority_t [0] $end
$var wire 1 R! PIRespId_t [5] $end
$var wire 1 S! PIRespId_t [4] $end
$var wire 1 T! PIRespId_t [3] $end
$var wire 1 U! PIRespId_t [2] $end
$var wire 1 V! PIRespId_t [1] $end
$var wire 1 W! PIRespId_t [0] $end
$var wire 1 X! PIReqRdy_t $end
$var wire 1 Y! data_i [31] $end
$var wire 1 Z! data_i [30] $end
$var wire 1 [! data_i [29] $end
$var wire 1 \! data_i [28] $end
$var wire 1 ]! data_i [27] $end
$var wire 1 ^! data_i [26] $end
$var wire 1 _! data_i [25] $end
$var wire 1 `! data_i [24] $end
$var wire 1 a! data_i [23] $end
$var wire 1 b! data_i [22] $end
$var wire 1 c! data_i [21] $end
$var wire 1 d! data_i [20] $end
$var wire 1 e! data_i [19] $end
$var wire 1 f! data_i [18] $end
$var wire 1 g! data_i [17] $end
$var wire 1 h! data_i [16] $end
$var wire 1 i! data_i [15] $end
$var wire 1 j! data_i [14] $end
$var wire 1 k! data_i [13] $end
$var wire 1 l! data_i [12] $end
$var wire 1 m! data_i [11] $end
$var wire 1 n! data_i [10] $end
$var wire 1 o! data_i [9] $end
$var wire 1 p! data_i [8] $end
$var wire 1 q! data_i [7] $end
$var wire 1 r! data_i [6] $end
$var wire 1 s! data_i [5] $end
$var wire 1 t! data_i [4] $end
$var wire 1 u! data_i [3] $end
$var wire 1 v! data_i [2] $end
$var wire 1 w! data_i [1] $end
$var wire 1 x! data_i [0] $end
$var wire 1 y! data_o [31] $end
$var wire 1 z! data_o [30] $end
$var wire 1 {! data_o [29] $end
$var wire 1 |! data_o [28] $end
$var wire 1 }! data_o [27] $end
$var wire 1 ~! data_o [26] $end
$var wire 1 !" data_o [25] $end
$var wire 1 "" data_o [24] $end
$var wire 1 #" data_o [23] $end
$var wire 1 $" data_o [22] $end
$var wire 1 %" data_o [21] $end
$var wire 1 &" data_o [20] $end
$var wire 1 '" data_o [19] $end
$var wire 1 (" data_o [18] $end
$var wire 1 )" data_o [17] $end
$var wire 1 *" data_o [16] $end
$var wire 1 +" data_o [15] $end
$var wire 1 ," data_o [14] $end
$var wire 1 -" data_o [13] $end
$var wire 1 ." data_o [12] $end
$var wire 1 /" data_o [11] $end
$var wire 1 0" data_o [10] $end
$var wire 1 1" data_o [9] $end
$var wire 1 2" data_o [8] $end
$var wire 1 3" data_o [7] $end
$var wire 1 4" data_o [6] $end
$var wire 1 5" data_o [5] $end
$var wire 1 6" data_o [4] $end
$var wire 1 7" data_o [3] $end
$var wire 1 8" data_o [2] $end
$var wire 1 9" data_o [1] $end
$var wire 1 :" data_o [0] $end
$var wire 1 ;" addr [31] $end
$var wire 1 <" addr [30] $end
$var wire 1 =" addr [29] $end
$var wire 1 >" addr [28] $end
$var wire 1 ?" addr [27] $end
$var wire 1 @" addr [26] $end
$var wire 1 A" addr [25] $end
$var wire 1 B" addr [24] $end
$var wire 1 C" addr [23] $end
$var wire 1 D" addr [22] $end
$var wire 1 E" addr [21] $end
$var wire 1 F" addr [20] $end
$var wire 1 G" addr [19] $end
$var wire 1 H" addr [18] $end
$var wire 1 I" addr [17] $end
$var wire 1 J" addr [16] $end
$var wire 1 K" addr [15] $end
$var wire 1 L" addr [14] $end
$var wire 1 M" addr [13] $end
$var wire 1 N" addr [12] $end
$var wire 1 O" addr [11] $end
$var wire 1 P" addr [10] $end
$var wire 1 Q" addr [9] $end
$var wire 1 R" addr [8] $end
$var wire 1 S" addr [7] $end
$var wire 1 T" addr [6] $end
$var wire 1 U" addr [5] $end
$var wire 1 V" addr [4] $end
$var wire 1 W" addr [3] $end
$var wire 1 X" addr [2] $end
$var wire 1 Y" addr [1] $end
$var wire 1 Z" addr [0] $end
$var wire 1 [" sel [3] $end
$var wire 1 \" sel [2] $end
$var wire 1 ]" sel [1] $end
$var wire 1 ^" sel [0] $end
$var wire 1 _" we $end
$var wire 1 `" cyc $end
$var wire 1 a" stb $end
$var wire 1 b" ack $end
$var wire 1 c" err $end
$var wire 1 d" cti [2] $end
$var wire 1 e" cti [1] $end
$var wire 1 f" cti [0] $end
$var wire 1 g" bte [1] $end
$var wire 1 h" bte [0] $end
$var wire 1 i" m_addr [31] $end
$var wire 1 j" m_addr [30] $end
$var wire 1 k" m_addr [29] $end
$var wire 1 l" m_addr [28] $end
$var wire 1 m" m_addr [27] $end
$var wire 1 n" m_addr [26] $end
$var wire 1 o" m_addr [25] $end
$var wire 1 p" m_addr [24] $end
$var wire 1 q" m_addr [23] $end
$var wire 1 r" m_addr [22] $end
$var wire 1 s" m_addr [21] $end
$var wire 1 t" m_addr [20] $end
$var wire 1 u" m_addr [19] $end
$var wire 1 v" m_addr [18] $end
$var wire 1 w" m_addr [17] $end
$var wire 1 x" m_addr [16] $end
$var wire 1 y" m_addr [15] $end
$var wire 1 z" m_addr [14] $end
$var wire 1 {" m_addr [13] $end
$var wire 1 |" m_addr [12] $end
$var wire 1 }" m_addr [11] $end
$var wire 1 ~" m_addr [10] $end
$var wire 1 !# m_addr [9] $end
$var wire 1 "# m_addr [8] $end
$var wire 1 ## m_addr [7] $end
$var wire 1 $# m_addr [6] $end
$var wire 1 %# m_addr [5] $end
$var wire 1 &# m_addr [4] $end
$var wire 1 '# m_addr [3] $end
$var wire 1 (# m_addr [2] $end
$var wire 1 )# m_addr [1] $end
$var wire 1 *# m_addr [0] $end
$var wire 1 +# m_sel [3] $end
$var wire 1 ,# m_sel [2] $end
$var wire 1 -# m_sel [1] $end
$var wire 1 .# m_sel [0] $end
$var wire 1 /# m_we $end
$var wire 1 0# m_data_o [31] $end
$var wire 1 1# m_data_o [30] $end
$var wire 1 2# m_data_o [29] $end
$var wire 1 3# m_data_o [28] $end
$var wire 1 4# m_data_o [27] $end
$var wire 1 5# m_data_o [26] $end
$var wire 1 6# m_data_o [25] $end
$var wire 1 7# m_data_o [24] $end
$var wire 1 8# m_data_o [23] $end
$var wire 1 9# m_data_o [22] $end
$var wire 1 :# m_data_o [21] $end
$var wire 1 ;# m_data_o [20] $end
$var wire 1 <# m_data_o [19] $end
$var wire 1 =# m_data_o [18] $end
$var wire 1 ># m_data_o [17] $end
$var wire 1 ?# m_data_o [16] $end
$var wire 1 @# m_data_o [15] $end
$var wire 1 A# m_data_o [14] $end
$var wire 1 B# m_data_o [13] $end
$var wire 1 C# m_data_o [12] $end
$var wire 1 D# m_data_o [11] $end
$var wire 1 E# m_data_o [10] $end
$var wire 1 F# m_data_o [9] $end
$var wire 1 G# m_data_o [8] $end
$var wire 1 H# m_data_o [7] $end
$var wire 1 I# m_data_o [6] $end
$var wire 1 J# m_data_o [5] $end
$var wire 1 K# m_data_o [4] $end
$var wire 1 L# m_data_o [3] $end
$var wire 1 M# m_data_o [2] $end
$var wire 1 N# m_data_o [1] $end
$var wire 1 O# m_data_o [0] $end
$var wire 1 P# m_data_i [31] $end
$var wire 1 Q# m_data_i [30] $end
$var wire 1 R# m_data_i [29] $end
$var wire 1 S# m_data_i [28] $end
$var wire 1 T# m_data_i [27] $end
$var wire 1 U# m_data_i [26] $end
$var wire 1 V# m_data_i [25] $end
$var wire 1 W# m_data_i [24] $end
$var wire 1 X# m_data_i [23] $end
$var wire 1 Y# m_data_i [22] $end
$var wire 1 Z# m_data_i [21] $end
$var wire 1 [# m_data_i [20] $end
$var wire 1 \# m_data_i [19] $end
$var wire 1 ]# m_data_i [18] $end
$var wire 1 ^# m_data_i [17] $end
$var wire 1 _# m_data_i [16] $end
$var wire 1 `# m_data_i [15] $end
$var wire 1 a# m_data_i [14] $end
$var wire 1 b# m_data_i [13] $end
$var wire 1 c# m_data_i [12] $end
$var wire 1 d# m_data_i [11] $end
$var wire 1 e# m_data_i [10] $end
$var wire 1 f# m_data_i [9] $end
$var wire 1 g# m_data_i [8] $end
$var wire 1 h# m_data_i [7] $end
$var wire 1 i# m_data_i [6] $end
$var wire 1 j# m_data_i [5] $end
$var wire 1 k# m_data_i [4] $end
$var wire 1 l# m_data_i [3] $end
$var wire 1 m# m_data_i [2] $end
$var wire 1 n# m_data_i [1] $end
$var wire 1 o# m_data_i [0] $end
$var wire 1 p# m_cyc $end
$var wire 1 q# m_stb $end
$var wire 1 r# m_ack $end
$var wire 1 s# m_err $end

$scope module pif2wsb $end

$scope module Dec $end
$var wire 1 - AdrIn [31] $end
$var wire 1 . AdrIn [30] $end
$var wire 1 / AdrIn [29] $end
$var wire 1 0 AdrIn [28] $end
$var wire 1 t# AdrValid $end
$var wire 1 u# Address [3] $end
$var wire 1 v# Address [2] $end
$var wire 1 w# Address [1] $end
$var wire 1 x# Address [0] $end
$upscope $end

$scope module reg0 $end
$var wire 1 ! clk $end
$var wire 1 # rst $end
$var wire 1 y# En $end
$var wire 1 m sel_i [3] $end
$var wire 1 n sel_i [2] $end
$var wire 1 o sel_i [1] $end
$var wire 1 p sel_i [0] $end
$var wire 1 [" sel_o [3] $end
$var wire 1 \" sel_o [2] $end
$var wire 1 ]" sel_o [1] $end
$var wire 1 ^" sel_o [0] $end
$var wire 1 z# temp [3] $end
$var wire 1 {# temp [2] $end
$var wire 1 |# temp [1] $end
$var wire 1 }# temp [0] $end
$upscope $end

$scope module reg1 $end
$var wire 1 ! clk $end
$var wire 1 # rst $end
$var wire 1 y# En $end
$var wire 32 ~# Num_i $end
$var wire 32 !$ Num_o $end
$var wire 32 "$ temp $end
$upscope $end
$upscope $end
$upscope $end
$upscope $end
$enddefinitions $end
#0
$dumpvars
0!
0"
0#
0$
0q
0v
0w
0|
0}
0~
0!!
0"!
0#!
0$!
0%!
0&!
x'!
1X!
0_"
0`"
0a"
xb"
xc"
x/#
xp#
xq#
xr#
xs#
0t#
1y#
x;"
x<"
x="
x>"
x?"
x@"
xA"
xB"
xC"
xD"
xE"
xF"
xG"
xH"
xI"
xJ"
xK"
xL"
xM"
xN"
xO"
xP"
xQ"
xR"
xS"
xT"
xU"
xV"
xW"
xX"
xY"
xZ"
0-
0.
0/
00
01
02
03
04
05
06
07
08
09
0:
0;
0<
0=
0>
0?
0@
0A
0B
0C
0D
0E
0F
0G
0H
0I
0J
0K
0L
0(!
0)!
0*!
0+!
0,!
0-!
0.!
0/!
z0!
z1!
z2!
z3!
z4!
z5!
z6!
z7!
z8!
z9!
z:!
z;!
z<!
z=!
z>!
z?!
z@!
zA!
zB!
zC!
zD!
zE!
zF!
zG!
zH!
zI!
zJ!
zK!
zL!
zM!
zN!
zO!
zy!
zz!
z{!
z|!
z}!
z~!
z!"
z""
z#"
z$"
z%"
z&"
z'"
z("
z)"
z*"
z+"
z,"
z-"
z."
z/"
z0"
z1"
z2"
z3"
z4"
z5"
z6"
z7"
z8"
z9"
z:"
0%
0&
0'
0(
0)
0*
0+
0,
0M
0N
0O
0P
0Q
0R
0S
0T
0U
0V
0W
0X
0Y
0Z
0[
0\
0]
0^
0_
0`
0a
0b
0c
0d
0e
0f
0g
0h
0i
0j
0k
0l
0m
0n
0o
0p
0r
0s
0t
0u
0x
0y
0z
0{
xP!
xQ!
xR!
xS!
xT!
xU!
xV!
xW!
xY!
xZ!
x[!
x\!
x]!
x^!
x_!
x`!
xa!
xb!
xc!
xd!
xe!
xf!
xg!
xh!
xi!
xj!
xk!
xl!
xm!
xn!
xo!
xp!
xq!
xr!
xs!
xt!
xu!
xv!
xw!
xx!
x["
x\"
x]"
x^"
0d"
0e"
0f"
0g"
0h"
xi"
xj"
xk"
xl"
xm"
xn"
xo"
xp"
xq"
xr"
xs"
xt"
xu"
xv"
xw"
xx"
xy"
xz"
x{"
x|"
x}"
x~"
x!#
x"#
x##
x$#
x%#
x&#
x'#
x(#
x)#
x*#
x+#
x,#
x-#
x.#
x0#
x1#
x2#
x3#
x4#
x5#
x6#
x7#
x8#
x9#
x:#
x;#
x<#
x=#
x>#
x?#
x@#
xA#
xB#
xC#
xD#
xE#
xF#
xG#
xH#
xI#
xJ#
xK#
xL#
xM#
xN#
xO#
xP#
xQ#
xR#
xS#
xT#
xU#
xV#
xW#
xX#
xY#
xZ#
x[#
x\#
x]#
x^#
x_#
x`#
xa#
xb#
xc#
xd#
xe#
xf#
xg#
xh#
xi#
xj#
xk#
xl#
xm#
xn#
xo#
1u#
0v#
0w#
0x#
xz#
x{#
x|#
x}#
b1 ~#
b0 !$
b0 "$
$end
#95
1q
1#
0}#
0|#
0{#
0z#
0Z"
0Y"
0X"
0W"
0V"
0U"
0T"
0S"
0R"
0Q"
0P"
0O"
0N"
0M"
0L"
0K"
0J"
0I"
0H"
0G"
0F"
0E"
0D"
0C"
0B"
0A"
0@"
0?"
0>"
0="
0<"
0;"
0^"
0]"
0\"
0["
#110
1!
#120
0!
1"
#130
1!
#135
0#
#140
0!
0"
#150
1!
b1 "$
b1 !$
#160
0!
1"
#170
1!
#175
1p
1o
1n
1m
1M
1H
1D
1A
1/
1.
1,
1$
#180
0!
0"
#190
1!
1}#
1|#
1{#
1z#
1V"
1R"
1O"
1="
1<"
1^"
1]"
1\"
1["
#195
0p
0o
0n
0m
1+
1*
1)
1(
1'
1&
1%
0$
b1111 ~#
#200
0!
1"
#210
1!
b1111 "$
0}#
0|#
0{#
0z#
b1111 !$
0^"
0]"
0\"
0["
#220
0!
0"
#230
1!
#235
1p
1o
1n
1m
0H
0D
0A
0/
0.
1-
0+
0*
0)
0(
0'
0&
0%
1$
1t#
b1 ~#
#240
0!
1"
#250
1!
b1 "$
1}#
1|#
1{#
1z#
0V"
0R"
0O"
0="
0<"
1;"
b1 !$
1^"
1]"
1\"
1["
#255
0p
0o
0n
0m
1+
1*
1)
1(
1'
1&
1%
0$
b1111 ~#
#260
0!
0"
#270
1!
b1111 "$
0}#
0|#
0{#
0z#
b1111 !$
0^"
0]"
0\"
0["
#280
0!
1"
#290
1!
#295
1p
1o
1n
1m
1l
1k
1j
1i
1h
1g
1f
1e
1d
1c
1b
1a
1`
1_
1^
1]
0M
0+
0*
0)
0(
0'
0&
1$
b1 ~#
#300
0!
0"
#310
1!
b1 "$
1}#
1|#
1{#
1z#
b1 !$
1^"
1]"
1\"
1["
#315
0p
0o
0n
0m
1+
1*
1)
1(
1'
1&
0$
b1111 ~#
#320
0!
1"
#330
1!
b1111 "$
0}#
0|#
0{#
0z#
b1111 !$
0^"
0]"
0\"
0["
#340
0!
0"
#350
1!
#355
1p
1o
1n
1m
0l
0k
0j
0i
0h
0g
0f
0e
0d
0c
0b
0a
0`
0_
0^
0]
1M
0+
0*
0)
0(
0'
0&
0%
1$
b1 ~#
#360
0!
1"
#370
1!
b1 "$
1}#
1|#
1{#
1z#
b1 !$
1^"
1]"
1\"
1["
#375
0p
0o
0n
0m
1+
1*
1)
1(
1'
1&
1%
0$
b1111 ~#
#380
0!
0"
#390
1!
b1111 "$
0}#
0|#
0{#
0z#
b1111 !$
0^"
0]"
0\"
0["
#400
0!
1"
#410
1!
#415
1p
1o
1n
1m
1l
1k
1j
1i
1h
1g
1f
1e
1d
1c
1b
1a
1`
1_
1^
1]
0M
1L
0+
0*
0)
0(
0'
0&
1$
b1 ~#
#420
0!
0"
#430
1!
b1 "$
1}#
1|#
1{#
1z#
1Z"
b1 !$
1^"
1]"
1\"
1["
#435
0p
0o
0n
0m
1+
1*
1)
1(
1'
1&
0$
b1111 ~#
#440
0!
1"
#450
1!
b1111 "$
0}#
0|#
0{#
0z#
b1111 !$
0^"
0]"
0\"
0["
#460
0!
0"
#470
1!
#475
1p
1o
1n
1m
0l
0k
0j
0i
0h
0g
0f
0e
0d
0c
0b
0a
0`
0_
0^
0]
1M
0+
0*
0)
0(
0'
0&
0%
1$
b1 ~#
#480
0!
1"
#490
1!
b1 "$
1}#
1|#
1{#
1z#
b1 !$
1^"
1]"
1\"
1["
#495
0p
0o
0n
0m
1+
1*
1)
1(
1'
1&
1%
0$
b1111 ~#
#500
0!
0"
#510
1!
b1111 "$
0}#
0|#
0{#
0z#
b1111 !$
0^"
0]"
0\"
0["
#520
0!
1"
#530
1!
#540
0!
0"
#550
1!
#560
0!
1"
#570
1!
#575
1p
1o
1n
1m
0L
1K
0+
0*
0)
0'
0&
0%
1$
b1 ~#
#580
0!
0"
#590
1!
b1 "$
1}#
1|#
1{#
1z#
0Z"
1Y"
b1 !$
1^"
1]"
1\"
1["
#595
0p
0o
0n
0m
0K
1J
1H
1E
1D
1/
1.
0-
1+
1*
1)
1'
1&
1%
0$
0t#
b1111 ~#
#600
0!
1"
#610
1!
b1111 "$
0}#
0|#
0{#
0z#
0Y"
1X"
1V"
1S"
1R"
1="
1<"
0;"
b1111 !$
0^"
0]"
0\"
0["
#620
0!
0"
#630
1!
#635
1p
1o
1n
1m
#640
0!
1"
#650
1!
1}#
1|#
1{#
1z#
1^"
1]"
1\"
1["
#655
0p
0o
0n
0m
#660
0!
0"
#670
1!
0}#
0|#
0{#
0z#
0^"
0]"
0\"
0["
#680
0!
1"
#690
1!
#700
0!
0"
#710
1!
#715
1p
1o
1n
1m
1l
1k
1j
1i
1h
1g
1f
1e
1d
1c
1b
1a
1`
1_
1^
1]
0M
1K
0J
0H
0E
0D
0/
0.
1-
0+
0*
0)
0'
0&
1$
b1 ~#
1t#
#720
0!
1"
#730
1!
b1 "$
1}#
1|#
1{#
1z#
1Y"
0X"
0V"
0S"
0R"
0="
0<"
1;"
b1 !$
1^"
1]"
1\"
1["
#735
0p
0o
0n
0m
1+
1*
1)
1'
1&
0$
b1111 ~#
#740
0!
0"
#750
1!
b1111 "$
0}#
0|#
0{#
0z#
b1111 !$
0^"
0]"
0\"
0["
#760
0!
1"
#770
1!
#775
1p
1o
1n
1m
0l
0k
0j
0i
0d
0c
0b
0a
1$
#780
0!
0"
#790
1!
1}#
1|#
1{#
1z#
1^"
1]"
1\"
1["
#795
0p
0o
0n
0m
0K
1J
1H
1E
1D
1/
1.
0-
0$
0t#
#800
0!
1"
#810
1!
0}#
0|#
0{#
0z#
0Y"
1X"
1V"
1S"
1R"
1="
1<"
0;"
0^"
0]"
0\"
0["
