vcd_to_DynamicPower/vcd_files/pif2wb_dump.vcd
$date
	Tue Sep  5 20:35:25 2017
$end
$version
	ModelSim Version 10.3c
$end
$timescale
	1ns
$end

$scope module test_bridge $end
$var wire 1 ! SCLK $end
$var wire 1 " CLKETH $end
$var wire 1 # SReset $end
$var wire 1 $ PIReqVALID $end
$var wire 1 % PIReqCNTL [7] $end
$var wire 1 & PIReqCNTL [6] $end
$var wire 1 ' PIReqCNTL [5] $end
$var wire 1 ( PIReqCNTL [4] $end
$var wire 1 ) PIReqCNTL [3] $end
$var wire 1 * PIReqCNTL [2] $end
$var wire 1 + PIReqCNTL [1] $end
$var wire 1 , PIReqCNTL [0] $end
$var wire 1 - PIReqADRS [31] $end
$var wire 1 . PIReqADRS [30] $end
$var wire 1 / PIReqADRS [29] $end
$var wire 1 0 PIReqADRS [28] $end
$var wire 1 1 PIReqADRS [27] $end
$var wire 1 2 PIReqADRS [26] $end
$var wire 1 3 PIReqADRS [25] $end
$var wire 1 4 PIReqADRS [24] $end
$var wire 1 5 PIReqADRS [23] $end
$var wire 1 6 PIReqADRS [22] $end
$var wire 1 7 PIReqADRS [21] $end
$var wire 1 8 PIReqADRS [20] $end
$var wire 1 9 PIReqADRS [19] $end
$var wire 1 : PIReqADRS [18] $end
$var wire 1 ; PIReqADRS [17] $end
$var wire 1 < PIReqADRS [16] $end
$var wire 1 = PIReqADRS [15] $end
$var wire 1 > PIReqADRS [14] $end
$var wire 1 ? PIReqADRS [13] $end
$var wire 1 @ PIReqADRS [12] $end
$var wire 1 A PIReqADRS [11] $end
$var wire 1 B PIReqADRS [10] $end
$var wire 1 C PIReqADRS [9] $end
$var wire 1 D PIReqADRS [8] $end
$var wire 1 E PIReqADRS [7] $end
$var wire 1 F PIReqADRS [6] $end
$var wire 1 G PIReqADRS [5] $end
$var wire 1 H PIReqADRS [4] $end
$var wire 1 I PIReqADRS [3] $end
$var wire 1 J PIReqADRS [2] $end
$var wire 1 K PIReqADRS [1] $end
$var wire 1 L PIReqADRS [0] $end
$var wire 1 M PIReqDATA [31] $end
$var wire 1 N PIReqDATA [30] $end
$var wire 1 O PIReqDATA [29] $end
$var wire 1 P PIReqDATA [28] $end
$var wire 1 Q PIReqDATA [27] $end
$var wire 1 R PIReqDATA [26] $end
$var wire 1 S PIReqDATA [25] $end
$var wire 1 T PIReqDATA [24] $end
$var wire 1 U PIReqDATA [23] $end
$var wire 1 V PIReqDATA [22] $end
$var wire 1 W PIReqDATA [21] $end
$var wire 1 X PIReqDATA [20] $end
$var wire 1 Y PIReqDATA [19] $end
$var wire 1 Z PIReqDATA [18] $end
$var wire 1 [ PIReqDATA [17] $end
$var wire 1 \ PIReqDATA [16] $end
$var wire 1 ] PIReqDATA [15] $end
$var wire 1 ^ PIReqDATA [14] $end
$var wire 1 _ PIReqDATA [13] $end
$var wire 1 ` PIReqDATA [12] $end
$var wire 1 a PIReqDATA [11] $end
$var wire 1 b PIReqDATA [10] $end
$var wire 1 c PIReqDATA [9] $end
$var wire 1 d PIReqDATA [8] $end
$var wire 1 e PIReqDATA [7] $end
$var wire 1 f PIReqDATA [6] $end
$var wire 1 g PIReqDATA [5] $end
$var wire 1 h PIReqDATA [4] $end
$var wire 1 i PIReqDATA [3] $end
$var wire 1 j PIReqDATA [2] $end
$var wire 1 k PIReqDATA [1] $end
$var wire 1 l PIReqDATA [0] $end
$var wire 1 m PIReqDataBE [3] $end
$var wire 1 n PIReqDataBE [2] $end
$var wire 1 o PIReqDataBE [1] $end
$var wire 1 p PIReqDataBE [0] $end
$var wire 1 q PIRespRDY $end
$var wire 1 r probe_mtxd_pad_o [3] $end
$var wire 1 s probe_mtxd_pad_o [2] $end
$var wire 1 t probe_mtxd_pad_o [1] $end
$var wire 1 u probe_mtxd_pad_o [0] $end
$var wire 1 v probe_mtxen_pad_o $end
$var wire 1 w mtxerr_pad_o $end
$var wire 1 x probe_mrxd_pad_i [3] $end
$var wire 1 y probe_mrxd_pad_i [2] $end
$var wire 1 z probe_mrxd_pad_i [1] $end
$var wire 1 { probe_mrxd_pad_i [0] $end
$var wire 1 | probe_mrxdv_pad_i $end
$var wire 1 } probe_mrxerr_pad_i $end
$var wire 1 ~ probe_mcoll_pad_i $end
$var wire 1 !! probe_mcrs_pad_i $end
$var wire 1 "! probe_mdc_pad_o $end
$var wire 1 #! probe_md_pad_i $end
$var wire 1 $! probe_md_pad_o $end
$var wire 1 %! probe_md_padoe_o $end
$var wire 1 &! interrupt $end
$upscope $end
$enddefinitions $end
#0
$dumpvars
0!
0"
0#
0$
0q
0v
0w
0|
0}
0~
0!!
0"!
0#!
0$!
0%!
0&!
0-
0.
0/
00
01
02
03
04
05
06
07
08
09
0:
0;
0<
0=
0>
0?
0@
0A
0B
0C
0D
0E
0F
0G
0H
0I
0J
0K
0L
0%
0&
0'
0(
0)
0*
0+
0,
0M
0N
0O
0P
0Q
0R
0S
0T
0U
0V
0W
0X
0Y
0Z
0[
0\
0]
0^
0_
0`
0a
0b
0c
0d
0e
0f
0g
0h
0i
0j
0k
0l
0m
0n
0o
0p
0r
0s
0t
0u
0x
0y
0z
0{
$end
#95
1q
1#
#110
1!
#120
0!
1"
#130
1!
#135
0#
#140
0!
0"
#150
1!
#160
0!
1"
#170
1!
#175
1p
1o
1n
1m
1M
1H
1D
1A
1/
1.
1,
1$
#180
0!
0"
#190
1!
#195
0p
0o
0n
0m
1+
1*
1)
1(
1'
1&
1%
0$
#200
0!
1"
#210
1!
#220
0!
0"
#230
1!
#235
1p
1o
1n
1m
0H
0D
0A
0/
0.
1-
0+
0*
0)
0(
0'
0&
0%
1$
#240
0!
1"
#250
1!
#255
0p
0o
0n
0m
1+
1*
1)
1(
1'
1&
1%
0$
#260
0!
0"
#270
1!
#280
0!
1"
#290
1!
#295
1p
1o
1n
1m
1l
1k
1j
1i
1h
1g
1f
1e
1d
1c
1b
1a
1`
1_
1^
1]
0M
0+
0*
0)
0(
0'
0&
1$
#300
0!
0"
#310
1!
#315
0p
0o
0n
0m
1+
1*
1)
1(
1'
1&
0$
#320
0!
1"
#330
1!
#340
0!
0"
#350
1!
#355
1p
1o
1n
1m
0l
0k
0j
0i
0h
0g
0f
0e
0d
0c
0b
0a
0`
0_
0^
0]
1M
0+
0*
0)
0(
0'
0&
0%
1$
#360
0!
1"
#370
1!
#375
0p
0o
0n
0m
1+
1*
1)
1(
1'
1&
1%
0$
#380
0!
0"
#390
1!
#400
0!
1"
#410
1!
#415
1p
1o
1n
1m
1l
1k
1j
1i
1h
1g
1f
1e
1d
1c
1b
1a
1`
1_
1^
1]
0M
1L
0+
0*
0)
0(
0'
0&
1$
#420
0!
0"
#430
1!
#435
0p
0o
0n
0m
1+
1*
1)
1(
1'
1&
0$
#440
0!
1"
#450
1!
#460
0!
0"
#470
1!
#475
1p
1o
1n
1m
0l
0k
0j
0i
0h
0g
0f
0e
0d
0c
0b
0a
0`
0_
0^
0]
1M
0+
0*
0)
0(
0'
0&
0%
1$
#480
0!
1"
#490
1!
#495
0p
0o
0n
0m
1+
1*
1)
1(
1'
1&
1%
0$
#500
0!
0"
#510
1!
#520
0!
1"
#530
1!
#540
0!
0"
#550
1!
#560
0!
1"
#570
1!
#575
1p
1o
1n
1m
0L
1K
0+
0*
0)
0'
0&
0%
1$
#580
0!
0"
#590
1!
#595
0p
0o
0n
0m
0K
1J
1H
1E
1D
1/
1.
0-
1+
1*
1)
1'
1&
1%
0$
#600
0!
1"
#610
1!
#620
0!
0"
#630
1!
#635
1p
1o
1n
1m
#640
0!
1"
#650
1!
#655
0p
0o
0n
0m
#660
0!
0"
#670
1!
#680
0!
1"
#690
1!
#700
0!
0"
#710
1!
#715
1p
1o
1n
1m
1l
1k
1j
1i
1h
1g
1f
1e
1d
1c
1b
1a
1`
1_
1^
1]
0M
1K
0J
0H
0E
0D
0/
0.
1-
0+
0*
0)
0'
0&
1$
#720
0!
1"
#730
1!
#735
0p
0o
0n
0m
1+
1*
1)
1'
1&
0$
#740
0!
0"
#750
1!
#760
0!
1"
#770
1!
#775
1p
1o
1n
1m
0l
0k
0j
0i
0d
0c
0b
0a
1$
#780
0!
0"
#790
1!
#795
0p
0o
0n
0m
0K
1J
1H
1E
1D
1/
1.
0-
0$
